…
This post is a work in progress.

Term frequency inverse document frequency (TF-IDF) is both a mouthful and a process often carried out as part of the text mining approach. The primary idea behind TF-IDF is to find the words which are most important for the content of each document by decreasing the weight for commonly used words and increasing the weight for words that are not used very much in a collection as a whole. Essentially it tries to find words that are important (i.e, common) in a text but not ubiquitous. For example, if there were two identical texts with only a single word difference between the two then a tf-idf approach would isolate that single word as the most important when comparing the two texts.

lincs_words <- lincsEventsTokens %>% count(lincsID, word, sort = TRUE)

total_words <- lincs_words %>% group_by(lincsID) %>%  summarize(total = sum(n))

lincs_words <- left_join(lincs_words, total_words)

lincs_words

## # A tibble: 39,309 x 4
##    lincsID word       n total
##      <dbl> <chr>  <int> <int>
##  1    1016 of       131   656
##  2    1016 from      66   656
##  3    1016 the       66   656
##  4    1016 wool      66   656
##  5    1016 vill      61   656
##  6    1142 and       50   766
##  7    1016 stones    46   656
##  8    1130 the       46   493
##  9    1142 the       46   766
## 10    1142 of        40   766
## # ... with 39,299 more rows

This creates a table (lincs_words) with one row for each word-allegation combination. n is the number of times that work is used in that particular allegation and total is the total number of words within that particular allegation. Above you can see the first ten rows from the resulting dataframe.

freq_by_rank <- lincs_words %>%  group_by(lincsID) %>% mutate(rank = row_number(), 'term frequency' = n/total) %>%  ungroup()

freq_by_rank

## # A tibble: 39,309 x 6
##    lincsID word       n total  rank `term frequency`
##      <dbl> <chr>  <int> <int> <int>            <dbl>
##  1    1016 of       131   656     1           0.200 
##  2    1016 from      66   656     2           0.101 
##  3    1016 the       66   656     3           0.101 
##  4    1016 wool      66   656     4           0.101 
##  5    1016 vill      61   656     5           0.0930
##  6    1142 and       50   766     1           0.0653
##  7    1016 stones    46   656     6           0.0701
##  8    1130 the       46   493     1           0.0933
##  9    1142 the       46   766     2           0.0601
## 10    1142 of        40   766     3           0.0522
## # ... with 39,299 more rows

Now I can calculate the frequency of each term across the entire document. This is carried out by dividing n - which is the number of times a particular word appears in each allegation - by the total number of times that word appears in the whole court roll. Again, above is a random 10 row selection from the dataframe which results from these calculations.

lincs_tf_idf <- lincs_words %>% bind_tf_idf(word, lincsID, n)

lincs_tf_idf

## # A tibble: 39,309 x 7
##    lincsID word       n total     tf    idf  tf_idf
##      <dbl> <chr>  <int> <int>  <dbl>  <dbl>   <dbl>
##  1    1016 of       131   656 0.200  0.0734 0.0146 
##  2    1016 from      66   656 0.101  0.508  0.0511 
##  3    1016 the       66   656 0.101  0.277  0.0279 
##  4    1016 wool      66   656 0.101  1.80   0.181  
##  5    1016 vill      61   656 0.0930 1.41   0.132  
##  6    1142 and       50   766 0.0653 0.321  0.0210 
##  7    1016 stones    46   656 0.0701 2.43   0.171  
##  8    1130 the       46   493 0.0933 0.277  0.0259 
##  9    1142 the       46   766 0.0601 0.277  0.0167 
## 10    1142 of        40   766 0.0522 0.0734 0.00383
## # ... with 39,299 more rows

The tf_idf will be close to zero for the most common words. These are the words which appear in most allegations. From the first ten rows ‘of’ and ‘the’ are the lowest. The highest values will be those words which occur in fewer allegations.

lincs_tf_idf %>%
  select(-total) %>%
  filter(n>10) %>% 
  arrange(desc(tf_idf))

## # A tibble: 69 x 6
##    lincsID word         n     tf   idf tf_idf
##      <dbl> <chr>    <int>  <dbl> <dbl>  <dbl>
##  1    1016 wool        66 0.101   1.80 0.181 
##  2    1016 stones      46 0.0701  2.43 0.171 
##  3    1016 vill        61 0.0930  1.41 0.132 
##  4    1142 brampton    16 0.0209  6.02 0.126 
##  5    1044 lincoln     18 0.0738  1.54 0.114 
##  6    1016 stone       19 0.0290  2.76 0.0799
##  7    1016 2           21 0.0320  2.12 0.0678
##  8    1134 to          13 0.0549  1.07 0.0587
##  9    1142 master      14 0.0183  3.13 0.0571
## 10    1016 1           17 0.0259  2.04 0.0529
## # ... with 59 more rows

It is unsurprising that almost all of the words which are determined as the most important are place or personal names. A further delving shows that some occupations are also determined as important with ‘fletcher’ occurring twice and foodstuffs ‘pork’ and ‘poultry’. It may be that the text within each allegation is often too small to adequately characterise using tf-idf. This text is based on a calendared edition. In other words, it has omitted much of the repetitive legalese which predominates in fourteenth century court documents (perhaps all court documents). This aids readability but might hinder analyses such as this one.

#Removes entries containing personal names, place names, digits, and common english words.

stop_tf_idf <- lincs_tf_idf %>% anti_join(lincs_stop_people)
stop_tf_idf <- stop_tf_idf %>% anti_join(lincs_stop_places)
stop_tf_idf <- stop_tf_idf %>% filter(grepl('^\\D', word))
stop_tf_idf <- stop_tf_idf %>% anti_join(stop_words)

stop_tf_idf %>%
  filter(n>3) %>% 
  arrange(desc(tf))

## # A tibble: 88 x 7
##    lincsID word         n total     tf   idf tf_idf
##      <dbl> <chr>    <int> <int>  <dbl> <dbl>  <dbl>
##  1    1016 wool        66   656 0.101   1.80  0.181
##  2     992 wool         4    40 0.1     1.80  0.180
##  3     778 vill         7    74 0.0946  1.41  0.134
##  4    1016 vill        61   656 0.0930  1.41  0.132
##  5     947 oats         7    78 0.0897  3.90  0.350
##  6     947 quarters     7    78 0.0897  2.40  0.215
##  7     294 vill         4    45 0.0889  1.41  0.126
##  8    1011 wool         5    60 0.0833  1.80  0.150
##  9    1098 wool         6    73 0.0822  1.80  0.148
## 10     709 wool         6    74 0.0811  1.80  0.146
## # ... with 78 more rows
…
  lincsYearWords <- lincsYearWords %>% select(UUID, lincsID, word, day, month, year, date)

  lincsYearWords <- lincsYearWords %>% count(year, word, sort = TRUE)

  #incsTotalYearWords <- lincsYearWords %>% group_by(year) %>%  summarize(total = sum(n))

  lincsTotalYearWords <- left_join(lincsYearWords, lincsTotalYearWords)

#Remove all rows without a year

  lincsTotalYearWords <- lincsTotalYearWords %>%  na.omit()

lincsTotalYearWords

## # A tibble: 2,236 x 4
##    year  word            n total
##    <chr> <chr>       <int> <int>
##  1 1340  feloniously    82  1580
##  2 1340  killed         68  1580
##  3 1338  wool           67  1708
##  4 1340  beat           43  1580
##  5 1340  paid           43  1580
##  6 1340  peace          41  1580
##  7 1340  arms           40  1580
##  8 1338  feloniously    39  1708
##  9 1340  fine           39  1580
## 10 1340  force          39  1580
## # ... with 2,226 more rows

From this we can see, for example, that more felonies were reported in 1340 than in 1338 or that wool was mentioned more often in 1338 than in other years. Not particularly informative so far. Again n is the number of occurences of a word within a year and total is the over number of words within each year.

yearFreqRank <- lincsTotalYearWords %>%  group_by(year) %>% mutate(rank = row_number(), 'term frequency' = n/total) %>%  ungroup()

yearFreqRank

## # A tibble: 2,236 x 6
##    year  word            n total  rank `term frequency`
##    <chr> <chr>       <int> <int> <int>            <dbl>
##  1 1340  feloniously    82  1580     1           0.0519
##  2 1340  killed         68  1580     2           0.0430
##  3 1338  wool           67  1708     1           0.0392
##  4 1340  beat           43  1580     3           0.0272
##  5 1340  paid           43  1580     4           0.0272
##  6 1340  peace          41  1580     5           0.0259
##  7 1340  arms           40  1580     6           0.0253
##  8 1338  feloniously    39  1708     2           0.0228
##  9 1340  fine           39  1580     7           0.0247
## 10 1340  force          39  1580     8           0.0247
## # ... with 2,226 more rows

lincsYearTFIDF <- lincsTotalYearWords %>% bind_tf_idf(word, year, n)

lincsYearTFIDF %>%
  filter(n>8) %>% 
  arrange(desc(tf_idf))

## # A tibble: 118 x 7
##    year  word          n total     tf   idf tf_idf
##    <chr> <chr>     <int> <int>  <dbl> <dbl>  <dbl>
##  1 1338  wool         67  1708 0.0396 0.981 0.0389
##  2 1334  marks        13   236 0.0563 0.575 0.0324
##  3 1341  justices     11   356 0.0310 0.981 0.0304
##  4 1338  quarters     30  1708 0.0178 1.39  0.0246
##  5 1336  brother      19   662 0.0288 0.827 0.0238
##  6 1333  paid          9   145 0.0634 0.375 0.0237
##  7 1336  inquest      15   662 0.0227 0.981 0.0223
##  8 1341  jan          10   356 0.0282 0.693 0.0195
##  9 1336  countessâ     9   662 0.0136 1.39  0.0189
## 10 1337  sack          9   689 0.0136 1.39  0.0188
## # ... with 108 more rows
…
