Mining a Medieval court roll 4: Topic Modelling
…
lincsDTM <- lincsTotalTidy %>% 
  select(word, lincsID) %>% 
  count(word, lincsID) %>% 
  cast_dtm(word, lincsID, n)

lincsLDA <- LDA(lincsDTM, k = 10, control = list(seed = 1234))

lincsTopics <- tidy(lincsLDA, matrix = "beta")
lincsTopics

## # A tibble: 12,290 x 3
##    topic term      beta
##    <int> <chr>    <dbl>
##  1     1 1085  2.37e-32
##  2     2 1085  8.26e-40
##  3     3 1085  3.37e-32
##  4     4 1085  1.77e-38
##  5     5 1085  1.40e-19
##  6     6 1085  7.14e- 7
##  7     7 1085  2.82e-22
##  8     8 1085  1.84e-72
##  9     9 1085  8.47e-57
## 10    10 1085  9.03e- 3
## # ... with 12,280 more rows
…
